Modeling - Renthop Data
…
roc_values <- filterVarImp(x = train_data[,-c(1,2,3)],
                          y = train_data$interest_level)

roc_values <- as_tibble(rownames_to_column(roc_values)) 

roc_values$roc_avg = rowMeans(roc_values[,c(2:4)])

roc_values <- roc_values %>%
  arrange(-roc_avg)

print(roc_values)

## # A tibble: 40 x 5
##            rowname       low    medium      high   roc_avg
##              <chr>     <dbl>     <dbl>     <dbl>     <dbl>
##  1  hod_high_proba 0.6583104 0.6130592 0.6583104 0.6432267
##  2       created_h 0.6521448 0.6087449 0.6521448 0.6376782
##  3    groups_agnes 0.6330268 0.5950990 0.6330268 0.6203842
##  4    groups_clara 0.6104853 0.5995756 0.6104853 0.6068487
##  5      groups_pam 0.6113305 0.5917141 0.6113305 0.6047917
##  6           anger 0.5665362 0.5665362 0.5561623 0.5630783
##  7 beds_bath_ratio 0.5590842 0.5590842 0.5575479 0.5585721
##  8             joy 0.5554817 0.5554817 0.5405366 0.5505000
##  9        negative 0.5537014 0.5537014 0.5362753 0.5478927
## 10           trust 0.5527503 0.5527503 0.5348108 0.5467705
## # ... with 30 more rows
…
